<?xml version="1.0" encoding="utf-8"?>
<!-- Generator: Adobe Illustrator 22.1.0, SVG Export Plug-In . SVG Version: 6.00 Build 0)  -->
<svg version="1.1" id="Hey_x2C__I_x27_m_a_coder." xmlns="http://www.w3.org/2000/svg" xmlns:xlink="http://www.w3.org/1999/xlink"
	 x="0px" y="0px" viewBox="0 0 855.1 120.7" style="enable-background:new 0 0 855.1 120.7;" xml:space="preserve">
<g id="Sentence">
	<polygon id="H" points="63,40.5 25.1,40.5 25.1,7.9 5.7,7.9 5.7,95.5 25.1,95.5 25.1,58.1 63,58.1 63,95.5 82.4,95.5 82.4,7.9 
		63,7.9 	"/>
	<path id="e" d="M139.5,34.8c-4.9-2.8-10.6-4.3-17-4.3c-6.5,0-12.4,1.4-17.7,4.1c-5.2,2.7-9.3,6.6-12.3,11.6
		c-2.9,5-4.4,10.9-4.4,17.5v0.5c0,6.5,1.4,12.3,4.3,17.2c2.9,4.9,7,8.8,12.3,11.5c5.3,2.7,11.3,4.1,18.1,4.1c5.1,0,9.9-0.9,14.5-2.6
		c4.5-1.8,8.8-4.7,12.7-8.8l-10.7-10.7c-2.3,2.2-4.7,3.8-7.2,4.8c-2.4,1-5.2,1.5-8.4,1.5c-4.9,0-8.9-1.1-12-3.4
		c-3.1-2.3-4.7-5.3-4.8-9.1h47.9c0.1-1.4,0.1-2.7,0.2-3.8c0-1.1,0.1-1.9,0.1-2.2c0-6-1.4-11.4-4.1-16.3
		C148.2,41.5,144.4,37.7,139.5,34.8z M107.2,56.6c0.3-2.9,1.8-5.4,4.8-7.5c2.9-2.1,6.5-3.1,10.6-3.1c3.8,0,7,1,9.7,3.1
		c2.7,2.1,4,4.5,4,7.5H107.2z"/>
	<polygon id="y" points="202.8,32.2 185.7,74.4 168.9,32.2 149.4,32.2 175.9,96.7 165.7,119.9 185,119.9 222.3,32.2 	"/>
	<polygon id="Comma" points="201.3,111.6 215.2,111.6 231,81.6 212.4,81.6 	"/>
	<rect id="I" x="266" y="7.9" width="19.4" height="87.6"/>
	<polygon id="Apostrophe" points="306.2,7.9 290.1,38.4 308.7,38.4 320,7.9 	"/>
	<path id="m" d="M391.6,30.8c-4.9,0-9.2,0.8-12.8,2.3c-3.6,1.5-6.4,4.1-8.3,7.8c-2.9-6.7-8.7-10.1-17.2-10.1
		c-3.9,0-7.3,0.9-10.2,2.6c-3,1.7-5.1,4-6.2,6.7v-7.9H318v63.4h18.7V60c0-3.7,1-6.7,3-9.1c2-2.3,4.5-3.5,7.5-3.5s5.3,1.1,7,3.2
		s2.5,5.1,2.5,8.7v36.2h18.7V60c0-3.7,1-6.7,3-9.1c2-2.3,4.5-3.5,7.6-3.5c3,0,5.3,1.1,7,3.2s2.5,5.1,2.5,8.7v36.2h18.7V57.1
		c0-8.2-1.9-14.6-5.8-19.3C404.3,33.1,398.8,30.8,391.6,30.8z"/>
	<path id="a" d="M495.7,35.9c-4.8-3.8-11.7-5.7-20.6-5.7c-5.9,0-11.3,1.2-16.2,3.5c-4.9,2.3-9.1,5.6-12.5,9.7l10.1,10.1
		c5.4-5.6,11.5-8.4,18.4-8.4c3.4,0,5.9,0.5,7.5,1.6c1.6,1,2.3,2.4,2.3,4v0.5c0,1.1-0.3,1.9-0.8,2.4s-1.4,0.9-2.7,1.1
		c-1.3,0.3-3.8,0.6-7.4,1c-7.4,1-13.3,2.4-17.7,4.3c-4.4,1.8-7.7,4.3-9.6,7.2c-2,3-3,6.7-3,11.3c0,5.8,2,10.4,6,13.7
		c4,3.4,9.5,5,16.4,5c9.6,0,16.2-3.4,19.9-10.3l0.9,8.7H503V52C503,45.1,500.6,39.7,495.7,35.9z M484.6,69.8
		c0,8.3-5.1,12.4-15.2,12.4c-2.4,0-4.3-0.5-5.5-1.4c-1.3-1-1.9-2.4-1.9-4.2c0-1.9,0.8-3.4,2.3-4.4s3.9-1.8,7.3-2.4l2.5-0.4
		c2.4-0.4,4.6-0.8,6.5-1.3c1.9-0.4,3.3-0.8,4-1.3V69.8z"/>
	<path id="c" d="M574.9,78.6c-2.3,1.1-5,1.6-8.1,1.6c-4.5,0-8.4-1.6-11.5-4.7c-3.1-3.1-4.7-7.1-4.7-11.8c0-4.8,1.5-8.7,4.7-11.9
		c3.1-3.1,7-4.7,11.6-4.7c3.1,0,5.8,0.5,8.1,1.6c2.3,1.1,4.5,2.7,6.6,4.9L593.2,42c-3.9-4.2-8-7.2-12.3-9.1
		c-4.4-1.8-9.1-2.8-14.1-2.8c-6.4,0-12.2,1.4-17.6,4.3c-5.4,2.9-9.6,6.9-12.7,12.1c-3.1,5.2-4.7,10.9-4.7,17.2
		c0,6.3,1.5,12,4.7,17.1c3.1,5.1,7.3,9.1,12.7,12c5.4,2.9,11.2,4.3,17.6,4.3c5,0,9.7-0.9,14.1-2.8c4.4-1.8,8.5-4.9,12.3-9.1
		l-11.7-11.7C579.5,75.8,577.3,77.5,574.9,78.6z"/>
	<path id="p" d="M643.7,34.7c-5.4-3-11.3-4.5-17.7-4.5c-6.5,0-12.4,1.5-17.7,4.5c-5.4,3-9.6,7-12.8,12.2s-4.7,10.8-4.7,16.9
		c0,6.1,1.6,11.8,4.7,16.9c3.1,5.2,7.4,9.2,12.8,12.2c5.4,3,11.3,4.5,17.7,4.5c6.4,0,12.3-1.5,17.7-4.5c5.4-3,9.7-7,12.8-12.2
		c3.1-5.2,4.7-10.8,4.7-16.9c0-6.1-1.6-11.8-4.7-16.9S649.1,37.7,643.7,34.7z M637.8,75.6c-3.2,3.2-7.1,4.8-11.7,4.8
		c-4.6,0-8.5-1.6-11.7-4.8c-3.2-3.2-4.8-7.1-4.8-11.8c0-3,0.7-5.8,2.2-8.4c1.5-2.6,3.5-4.6,6-6c2.5-1.5,5.3-2.2,8.3-2.2
		s5.8,0.7,8.3,2.2c2.5,1.5,4.5,3.5,6,6c1.5,2.6,2.2,5.3,2.2,8.4C642.5,68.5,640.9,72.4,637.8,75.6z"/>
	<path id="d" d="M712.3,40.5c-0.9-2.8-3.1-5-6.5-6.8c-3.4-1.8-7.5-2.6-12.3-2.6c-5.9,0-11.2,1.5-16,4.4c-4.8,2.9-8.6,6.9-11.3,11.9
		c-2.7,5-4.1,10.5-4.1,16.5s1.4,11.6,4.1,16.6c2.7,5,6.5,9,11.3,11.9c4.8,2.9,10.2,4.3,16,4.3c4.8,0,8.9-0.9,12.3-2.6
		c3.4-1.8,5.6-4,6.5-6.8v8.3H731V7.9h-18.7V40.5z M708.6,75.1c-3.2,3.1-7.1,4.6-11.8,4.6c-4.5,0-8.3-1.5-11.4-4.6
		c-3.1-3.1-4.7-6.8-4.7-11.3c0-4.4,1.5-8.2,4.7-11.3c3.1-3.1,6.9-4.6,11.4-4.6c4.6,0,8.5,1.5,11.8,4.6c3.2,3.1,4.8,6.8,4.8,11.3
		C713.4,68.3,711.8,72,708.6,75.1z"/>
	<path id="e_1_" d="M785.7,34.8c-4.9-2.8-10.6-4.3-17-4.3c-6.5,0-12.4,1.4-17.7,4.1c-5.2,2.7-9.3,6.6-12.3,11.6
		c-2.9,5-4.4,10.9-4.4,17.5v0.5c0,6.5,1.4,12.3,4.3,17.2c2.9,4.9,7,8.8,12.3,11.5c5.3,2.7,11.3,4.1,18.1,4.1c5.1,0,9.9-0.9,14.5-2.6
		c4.5-1.8,8.8-4.7,12.7-8.8l-10.7-10.7c-2.3,2.2-4.7,3.8-7.2,4.8c-2.4,1-5.2,1.5-8.4,1.5c-4.9,0-8.9-1.1-12-3.4
		c-3.1-2.3-4.7-5.3-4.8-9.1h47.9c0.1-1.4,0.1-2.7,0.2-3.8c0-1.1,0.1-1.9,0.1-2.2c0-6-1.4-11.4-4.1-16.3
		C794.5,41.5,790.7,37.7,785.7,34.8z M753.4,56.6c0.3-2.9,1.8-5.4,4.8-7.5c2.9-2.1,6.5-3.1,10.6-3.1c3.8,0,7,1,9.7,3.1
		c2.7,2.1,4,4.5,4,7.5H753.4z"/>
	<path id="r" d="M846.3,48.8V31.2c-2-0.3-3.6-0.4-4.9-0.4c-4.4,0-8.2,0.9-11.4,2.6c-3.2,1.8-5.6,4.2-7,7.4v-8.7h-18.7v63.4h18.7
		V64.6c0-5.2,1.5-9.2,4.5-12.1c3-2.9,7.1-4.3,12.5-4.3C842.3,48.1,844.4,48.3,846.3,48.8z"/>
	<path id="Dot" d="M851.7,79.3c-2.1-2-4.5-3-7.2-3c-2.8,0-5.2,1-7.2,3c-2.1,2-3.1,4.4-3.1,7.2c0,2.8,1,5.2,3.1,7.2
		c2.1,2,4.5,3,7.2,3c2.8,0,5.2-1,7.2-3c2.1-2,3.1-4.4,3.1-7.2C854.8,83.7,853.7,81.3,851.7,79.3z"/>
</g>
</svg>
